<svg width="12" height="8" viewBox="0 0 12 8" fill="none" xmlns="http://www.w3.org/2000/svg">
<path d="M9.87949 6.70945L5.99949 2.82945L2.11949 6.70945C1.72949 7.09945 1.09949 7.09945 0.709492 6.70945C0.319492 6.31945 0.319492 5.68945 0.709492 5.29945L5.29949 0.709453C5.68949 0.319453 6.31949 0.319453 6.70949 0.709453L11.2995 5.29945C11.6895 5.68945 11.6895 6.31945 11.2995 6.70945C10.9095 7.08945 10.2695 7.09945 9.87949 6.70945Z" fill="#7C7C7C"/>
</svg>
