<svg width="24" height="24" viewBox="0 0 24 24" fill="none" xmlns="http://www.w3.org/2000/svg">
<g clip-path="url(#clip0)">
<path d="M0.751953 3.75H23.252V23.25H0.751953V3.75Z" stroke="#5742B5" stroke-width="1.5" stroke-linecap="round" stroke-linejoin="round"/>
<path d="M0.751953 9.75H23.252" stroke="#5742B5" stroke-width="1.5" stroke-linecap="round" stroke-linejoin="round"/>
<path d="M6.75195 6V0.75" stroke="#5742B5" stroke-width="1.5" stroke-linecap="round" stroke-linejoin="round"/>
<path d="M17.252 6V0.75" stroke="#5742B5" stroke-width="1.5" stroke-linecap="round" stroke-linejoin="round"/>
</g>
<defs>
<clipPath id="clip0">
<rect width="24" height="24" fill="white"/>
</clipPath>
</defs>
</svg>
