<svg width="55" height="48" viewBox="0 0 55 48" fill="none" xmlns="http://www.w3.org/2000/svg">
<g filter="url(#filter0_d)">
<path fill-rule="evenodd" clip-rule="evenodd" d="M8.55957 2C6.35043 2 4.55957 3.79086 4.55957 6V30C4.55957 32.2091 6.35044 34 8.55957 34H19.9196L28.0796 42L35.2796 34H46.6396C48.8487 34 50.6396 32.2091 50.6396 30V6C50.6396 3.79086 48.8487 2 46.6396 2H8.55957Z" fill="#5742B5"/>
<g clip-path="url(#clip0)">
<path d="M36.5598 13.5615H24.643C24.0608 13.5615 23.0889 13.7914 23.0889 15.3516V17.7384H38.1139V15.3516C38.1139 13.7963 37.142 13.5615 36.5598 13.5615Z" fill="white"/>
<path d="M19.8495 18.2571H17.5816V9.91309H16.0791V26.0875H17.5816V21.9106H37.6166V26.0826H39.1191V18.2571H19.8495Z" fill="white"/>
<path d="M20.0842 17.8364C21.2433 17.8364 22.183 16.8576 22.183 15.6501C22.183 14.4427 21.2433 13.4639 20.0842 13.4639C18.925 13.4639 17.9854 14.4427 17.9854 15.6501C17.9854 16.8576 18.925 17.8364 20.0842 17.8364Z" fill="white"/>
</g>
</g>
<defs>
<filter id="filter0_d" x="0.55957" y="0" width="54.08" height="48" filterUnits="userSpaceOnUse" color-interpolation-filters="sRGB">
<feFlood flood-opacity="0" result="BackgroundImageFix"/>
<feColorMatrix in="SourceAlpha" type="matrix" values="0 0 0 0 0 0 0 0 0 0 0 0 0 0 0 0 0 0 127 0"/>
<feOffset dy="2"/>
<feGaussianBlur stdDeviation="2"/>
<feColorMatrix type="matrix" values="0 0 0 0 0 0 0 0 0 0 0 0 0 0 0 0 0 0 0.24 0"/>
<feBlend mode="normal" in2="BackgroundImageFix" result="effect1_dropShadow"/>
<feBlend mode="normal" in="SourceGraphic" in2="effect1_dropShadow" result="shape"/>
</filter>
<clipPath id="clip0">
<rect width="23.04" height="24" fill="white" transform="translate(16.0791 6)"/>
</clipPath>
</defs>
</svg>
