<svg width="14" height="14" viewBox="0 0 14 14" fill="none" xmlns="http://www.w3.org/2000/svg">
<g clip-path="url(#clip0)">
<path d="M5.58791 8.41207L6.66883 10.3581C6.78608 10.5692 7.05266 10.6451 7.26383 10.5278C7.35599 10.4765 7.42599 10.3942 7.46216 10.2951L9.28916 5.2714C9.37141 5.04449 9.25416 4.79307 9.02724 4.71082C8.93099 4.67582 8.82483 4.67582 8.72858 4.71082L3.70491 6.53782C3.47799 6.62065 3.36074 6.87149 3.44358 7.0984C3.47974 7.19699 3.54974 7.27982 3.64191 7.33115L5.58791 8.41207Z" stroke="#7C7C7C" stroke-linecap="round" stroke-linejoin="round"/>
<path d="M7 0.4375C10.6242 0.4375 13.5625 3.37575 13.5625 7C13.5625 10.6242 10.6242 13.5625 7 13.5625C3.37575 13.5625 0.4375 10.6242 0.4375 7C0.4375 3.37575 3.37575 0.4375 7 0.4375Z" stroke="#7C7C7C" stroke-linecap="round" stroke-linejoin="round"/>
</g>
<defs>
<clipPath id="clip0">
<rect width="14" height="14" fill="white"/>
</clipPath>
</defs>
</svg>
