<svg width="24" height="24" viewBox="0 0 24 24" fill="none" xmlns="http://www.w3.org/2000/svg">
<path d="M19.75 8.25C19.75 12.471 16.817 14.899 14.619 17.25C13.303 18.658 12.25 23.25 12.25 23.25C12.25 23.25 11.2 18.661 9.887 17.257C7.687 14.907 4.75 12.475 4.75 8.25C4.75 6.26088 5.54018 4.35322 6.9467 2.9467C8.35322 1.54018 10.2609 0.75 12.25 0.75C14.2391 0.75 16.1468 1.54018 17.5533 2.9467C18.9598 4.35322 19.75 6.26088 19.75 8.25V8.25Z" stroke="#5742B5" stroke-width="1.5" stroke-linecap="round" stroke-linejoin="round"/>
<path d="M9.25 8.25C9.25 9.04565 9.56607 9.80871 10.1287 10.3713C10.6913 10.9339 11.4544 11.25 12.25 11.25C13.0456 11.25 13.8087 10.9339 14.3713 10.3713C14.9339 9.80871 15.25 9.04565 15.25 8.25C15.25 7.45435 14.9339 6.69129 14.3713 6.12868C13.8087 5.56607 13.0456 5.25 12.25 5.25C11.4544 5.25 10.6913 5.56607 10.1287 6.12868C9.56607 6.69129 9.25 7.45435 9.25 8.25Z" stroke="#5742B5" stroke-width="1.5" stroke-linecap="round" stroke-linejoin="round"/>
</svg>
