<svg width="24" height="24" viewBox="0 0 24 24" fill="none" xmlns="http://www.w3.org/2000/svg">
<path d="M15.5008 13.9999H14.7108L14.4308 13.7299C15.5273 12.4523 16.0863 10.7995 15.9902 9.11859C15.8942 7.43766 15.1506 5.85931 13.9156 4.71492C12.6807 3.57054 11.0504 2.94913 9.36698 2.98116C7.68361 3.01319 6.07811 3.69618 4.88757 4.88672C3.69703 6.07726 3.01405 7.68275 2.98201 9.36613C2.94998 11.0495 3.57139 12.6798 4.71578 13.9148C5.86016 15.1498 7.43851 15.8933 9.11945 15.9894C10.8004 16.0854 12.4532 15.5265 13.7308 14.4299L14.0008 14.7099V15.4999L19.0008 20.4899L20.4908 18.9999L15.5008 13.9999ZM9.50078 13.9999C8.61076 13.9999 7.74073 13.736 7.00071 13.2415C6.26069 12.7471 5.68391 12.0443 5.34332 11.222C5.00272 10.3997 4.91361 9.49493 5.08724 8.62201C5.26088 7.7491 5.68946 6.94728 6.3188 6.31794C6.94813 5.68861 7.74995 5.26002 8.62287 5.08639C9.49578 4.91275 10.4006 5.00187 11.2229 5.34246C12.0451 5.68306 12.7479 6.25983 13.2424 6.99986C13.7369 7.73988 14.0008 8.60991 14.0008 9.49992C14.0016 10.0911 13.8857 10.6766 13.6598 11.2229C13.434 11.7693 13.1025 12.2656 12.6845 12.6837C12.2665 13.1017 11.7701 13.4331 11.2238 13.659C10.6775 13.8849 10.0919 14.0007 9.50078 13.9999Z" fill="#CECECE"/>
</svg>
